chk_rollbyte
i:-1833435136 k:00 key:0x3100 data:0xEB chk:0x00
i:07 k:00 key:0x3100 data:0xEB chk:0x00
i:07 k:00 key:0x3100 data:0xEB chk:0x00
i:07 k:00 key:0x3100 data:0xEB chk:0x00
i:07 k:00 key:0x1880 data:0xEB chk:0x00
i:06 k:00 key:0x1880 data:0xEB chk:0x00
i:06 k:00 key:0x1880 data:0xEB chk:0x80
i:06 k:00 key:0x1880 data:0xEB chk:0x80
i:06 k:00 key:0x0C40 data:0xEB chk:0x80
i:05 k:00 key:0x0C40 data:0xEB chk:0x80
i:05 k:00 key:0x0C40 data:0xEB chk:0xC0
i:05 k:00 key:0x0C40 data:0xEB chk:0xC0
i:05 k:00 key:0x0620 data:0xEB chk:0xC0
i:04 k:00 key:0x0620 data:0xEB chk:0xC0
i:04 k:00 key:0x0620 data:0xEB chk:0xC0
i:04 k:00 key:0x0310 data:0xEB chk:0xC0
i:03 k:00 key:0x0310 data:0xEB chk:0xC0
i:03 k:00 key:0x0310 data:0xEB chk:0xD0
i:03 k:00 key:0x0310 data:0xEB chk:0xD0
i:03 k:00 key:0x0188 data:0xEB chk:0xD0
i:02 k:00 key:0x0188 data:0xEB chk:0xD0
i:02 k:00 key:0x0188 data:0xEB chk:0xD0
i:02 k:00 key:0x00C4 data:0xEB chk:0xD0
i:01 k:00 key:0x00C4 data:0xEB chk:0xD0
i:01 k:00 key:0x00C4 data:0xEB chk:0x14
i:01 k:00 key:0x00C4 data:0xEB chk:0x14
i:01 k:00 key:0x0062 data:0xEB chk:0x14
i:00 k:00 key:0x0062 data:0xEB chk:0x14
i:00 k:00 key:0x0062 data:0xEB chk:0x76
i:00 k:00 key:0x0062 data:0xEB chk:0x76
i:00 k:00 key:0x0031 data:0xEB chk:0x76
i:-1 k:01 key:0x3100 data:0x00 chk:0x76
i:07 k:01 key:0x3100 data:0x00 chk:0x76
i:07 k:01 key:0x3100 data:0x00 chk:0x76
i:07 k:01 key:0x1880 data:0x00 chk:0x76
i:06 k:01 key:0x1880 data:0x00 chk:0x76
i:06 k:01 key:0x1880 data:0x00 chk:0x76
i:06 k:01 key:0x0C40 data:0x00 chk:0x76
i:05 k:01 key:0x0C40 data:0x00 chk:0x76
i:05 k:01 key:0x0C40 data:0x00 chk:0x76
i:05 k:01 key:0x0620 data:0x00 chk:0x76
i:04 k:01 key:0x0620 data:0x00 chk:0x76
i:04 k:01 key:0x0620 data:0x00 chk:0x76
i:04 k:01 key:0x0310 data:0x00 chk:0x76
i:03 k:01 key:0x0310 data:0x00 chk:0x76
i:03 k:01 key:0x0310 data:0x00 chk:0x76
i:03 k:01 key:0x0188 data:0x00 chk:0x76
i:02 k:01 key:0x0188 data:0x00 chk:0x76
i:02 k:01 key:0x0188 data:0x00 chk:0x76
i:02 k:01 key:0x00C4 data:0x00 chk:0x76
i:01 k:01 key:0x00C4 data:0x00 chk:0x76
i:01 k:01 key:0x00C4 data:0x00 chk:0x76
i:01 k:01 key:0x0062 data:0x00 chk:0x76
i:00 k:01 key:0x0062 data:0x00 chk:0x76
i:00 k:01 key:0x0062 data:0x00 chk:0x76
i:00 k:01 key:0x0031 data:0x00 chk:0x76
i:-1 k:02 key:0x3100 data:0x2A chk:0x76
i:07 k:02 key:0x3100 data:0x2A chk:0x76
i:07 k:02 key:0x3100 data:0x2A chk:0x76
i:07 k:02 key:0x1880 data:0x2A chk:0x76
i:06 k:02 key:0x1880 data:0x2A chk:0x76
i:06 k:02 key:0x1880 data:0x2A chk:0x76
i:06 k:02 key:0x0C40 data:0x2A chk:0x76
i:05 k:02 key:0x0C40 data:0x2A chk:0x76
i:05 k:02 key:0x0C40 data:0x2A chk:0x36
i:05 k:02 key:0x0C40 data:0x2A chk:0x36
i:05 k:02 key:0x0620 data:0x2A chk:0x36
i:04 k:02 key:0x0620 data:0x2A chk:0x36
i:04 k:02 key:0x0620 data:0x2A chk:0x36
i:04 k:02 key:0x0310 data:0x2A chk:0x36
i:03 k:02 key:0x0310 data:0x2A chk:0x36
i:03 k:02 key:0x0310 data:0x2A chk:0x26
i:03 k:02 key:0x0310 data:0x2A chk:0x26
i:03 k:02 key:0x0188 data:0x2A chk:0x26
i:02 k:02 key:0x0188 data:0x2A chk:0x26
i:02 k:02 key:0x0188 data:0x2A chk:0x26
i:02 k:02 key:0x00C4 data:0x2A chk:0x26
i:01 k:02 key:0x00C4 data:0x2A chk:0x26
i:01 k:02 key:0x00C4 data:0x2A chk:0xE2
i:01 k:02 key:0x00C4 data:0x2A chk:0xE2
i:01 k:02 key:0x0062 data:0x2A chk:0xE2
i:00 k:02 key:0x0062 data:0x2A chk:0xE2
i:00 k:02 key:0x0062 data:0x2A chk:0xE2
i:00 k:02 key:0x0031 data:0x2A chk:0xE2
i:-1 k:03 key:0x3100 data:0xB8 chk:0xE2
i:07 k:03 key:0x3100 data:0xB8 chk:0xE2
i:07 k:03 key:0x3100 data:0xB8 chk:0xE2
i:07 k:03 key:0x3100 data:0xB8 chk:0xE2
i:07 k:03 key:0x1880 data:0xB8 chk:0xE2
i:06 k:03 key:0x1880 data:0xB8 chk:0xE2
i:06 k:03 key:0x1880 data:0xB8 chk:0xE2
i:06 k:03 key:0x0C40 data:0xB8 chk:0xE2
i:05 k:03 key:0x0C40 data:0xB8 chk:0xE2
i:05 k:03 key:0x0C40 data:0xB8 chk:0xA2
i:05 k:03 key:0x0C40 data:0xB8 chk:0xA2
i:05 k:03 key:0x0620 data:0xB8 chk:0xA2
i:04 k:03 key:0x0620 data:0xB8 chk:0xA2
i:04 k:03 key:0x0620 data:0xB8 chk:0x82
i:04 k:03 key:0x0620 data:0xB8 chk:0x82
i:04 k:03 key:0x0310 data:0xB8 chk:0x82
i:03 k:03 key:0x0310 data:0xB8 chk:0x82
i:03 k:03 key:0x0310 data:0xB8 chk:0x92
i:03 k:03 key:0x0310 data:0xB8 chk:0x92
i:03 k:03 key:0x0188 data:0xB8 chk:0x92
i:02 k:03 key:0x0188 data:0xB8 chk:0x92
i:02 k:03 key:0x0188 data:0xB8 chk:0x92
i:02 k:03 key:0x00C4 data:0xB8 chk:0x92
i:01 k:03 key:0x00C4 data:0xB8 chk:0x92
i:01 k:03 key:0x00C4 data:0xB8 chk:0x92
i:01 k:03 key:0x0062 data:0xB8 chk:0x92
i:00 k:03 key:0x0062 data:0xB8 chk:0x92
i:00 k:03 key:0x0062 data:0xB8 chk:0x92
i:00 k:03 key:0x0031 data:0xB8 chk:0x92
i:-1 k:04 key:0x0031 data:0xB8 chk:0x92
result:0x92
